…
``` r
datos %>%
  group_by(Item.Description,anio,ciudad) %>% 
  summarise(mas_vendidos=max(ventas)) %>% 
  filter(anio==2016) %>%
  arrange(-mas_vendidos) %>% 
  pivot_wider(names_from = ciudad,
              values_from = mas_vendidos,
              values_fill = 0)
```

    ## `summarise()` has grouped output by 'Item.Description', 'anio'. You can
    ## override using the `.groups` argument.

    ## # A tibble: 299 × 5
    ## # Groups:   Item.Description, anio [299]
    ##    Item.Description                       anio `CEDAR RAPIDS` DAVENPORT WATERLOO
    ##    <chr>                                 <dbl>          <dbl>     <dbl>    <dbl>
    ##  1 "Cedar Ridge Barrel Aged Rum 5YR Res…  2016          8250         0        0 
    ##  2 "Malibu Coconut Rum"                   2016          7555.     3778.    5666.
    ##  3 "Rumchata"                             2016          4412.     5882.    4500 
    ##  4 "Carolan's Irish Cream Liqueur"        2016           188.     4576.     148.
    ##  5 "Smirnoff Kissed Caramel"              2016          4160.      149.     149.
    ##  6 "Bailey's Original Irish Cream"        2016          3727.     3564     3564 
    ##  7 "New Amsterdam Peach"                  2016          1490.     3402     1863 
    ##  8 "Uv Blue (raspberry) Vodka"            2016          3375      2430     3375 
    ##  9 "Ryan's Cream Liqueur"                 2016          2463.      121.    3125.
    ## 10 "Rumchata \"GoChatas\""                2016           148.      148.    2970 
    ## # ℹ 289 more rows
…
datos %>%
  group_by(Item.Description,anio,ciudad) %>% 
  summarise(mas_vendidos=max(ventas)) %>% 
  filter(anio==2017) %>%
  arrange(-mas_vendidos) %>% 
  pivot_wider(names_from = ciudad,
              values_from = mas_vendidos,
              values_fill = 0) 
```

    ## `summarise()` has grouped output by 'Item.Description', 'anio'. You can
    ## override using the `.groups` argument.

    ## # A tibble: 87 × 5
    ## # Groups:   Item.Description, anio [87]
    ##    Item.Description                anio DAVENPORT WATERLOO `CEDAR RAPIDS`
    ##    <chr>                          <dbl>     <dbl>    <dbl>          <dbl>
    ##  1 Godiva Liqueur                  2017      306      306            25.5
    ##  2 Godiva White Chocolate Liqueur  2017      306      306            25.5
    ##  3 Bailey's Original Irish Cream   2017      297      297           297  
    ##  4 Bailey's Chocolate Cherry       2017      225        0            20.2
    ##  5 Bailey's Salted Caramel         2017      225      225           225  
    ##  6 Bailey's Vanilla Cinnamon       2017      225        0           225  
    ##  7 Baileys Expresso Creme          2017      225        0           225  
    ##  8 Rumchata                        2017      225      225           225  
    ##  9 Tequila Rose Liqueur            2017      207      207           207  
    ## 10 Malibu Coconut Rum              2017      189.     189.          189. 
    ## # ℹ 77 more rows
…
